part_2_vector_multiply/wave.vcd
$date
	Tue Feb 27 11:44:59 2024
$end
$version
	Bluespec VCD dumper 2.1
$end
$timescale
	1 us
$end
$scope module main $end
$scope module top $end
$var reg 1 ! CLK $end
$var reg 1 ! CLK $end
$var reg 1 " RST_N $end
$var reg 2 # i__h583 $end
$var reg 32 ( ctr $end
$var reg 1 ) going $end
$var reg 2 * i $end
$scope module mma $end
$var reg 1 ! CLK $end
$var reg 1 + RST_N $end
$var reg 2 , _0_CONCAT_DONTCARE___d26 $end
$var reg 1 - a_serverAdapter_cnt_1_whas____d10 $end
$var reg 1 . a_serverAdapter_cnt_2_whas____d11 $end
$var reg 1 / a_serverAdapter_cnt_3_whas____d13 $end
$var reg 1 0 a_serverAdapter_outData_ff_i_notEmpty____d4 $end
$var reg 1 1 a_serverAdapter_s1_5_BIT_0___d36 $end
$var reg 2 2 a_serverAdapter_s1___d35 $end
$var reg 3 3 b__h2343 $end
$var reg 3 4 b__h870 $end
$var reg 1 5 b_serverAdapter_cnt_1_whas____d60 $end
$var reg 1 6 b_serverAdapter_cnt_2_whas____d61 $end
$var reg 1 7 b_serverAdapter_cnt_3_whas____d63 $end
$var reg 1 8 b_serverAdapter_outData_ff_i_notEmpty____d54 $end
$var reg 1 9 b_serverAdapter_s1_4_BIT_0___d85 $end
$var reg 2 : b_serverAdapter_s1___d84 $end
$var reg 1 ; done_all__h3796 $end
$var reg 1 < ready_start__h3379 $end
$var reg 32 = x__h1950 $end
$var reg 3 > x__h3707 $end
$var reg 3 ? x__h3708 $end
$var reg 32 @ x__h4046 $end
$var reg 8 A x__h4098 $end
$var reg 32 B x__h474 $end
$var reg 32 C x_wget__h1852 $end
$var reg 32 D x_wget__h376 $end
$var reg 8 E y__h3704 $end
$var reg 8 F y__h3706 $end
$scope module a_memory $end
$var reg 1 ! CLK $end
$var reg 1 m EN $end
$var reg 1 n WE $end
$var reg 8 o ADDR $end
$var reg 32 p DI $end
$var reg 32 q DO $end
$upscope $end
$var reg 3 r a_serverAdapter_cnt $end
$var reg 3 s a_serverAdapter_cnt_1 $end
$var reg 3 t a_serverAdapter_cnt_2 $end
$var reg 3 u a_serverAdapter_cnt_3 $end
$var reg 1 v a_serverAdapter_outData_beforeDeq $end
$var reg 1 w a_serverAdapter_outData_beforeEnq $end
$var reg 1 x a_serverAdapter_outData_dequeueing $end
$var reg 32 y a_serverAdapter_outData_enqw $end
$scope module a_serverAdapter_outData_ff $end
$var reg 1 ! CLK $end
$var reg 1 z RST $end
$var reg 1 { FULL_N $end
$var reg 1 | EMPTY_N $end
$var reg 1 } ENQ $end
$var reg 32 ~ D_IN $end
$var reg 1 "! DEQ $end
$var reg 1 "" CLR $end
$var reg 32 "# D_OUT $end
$var reg 32 "# arr_0 $end
$var reg 32 "$ arr_1 $end
$var reg 32 "% arr_2 $end
$upscope $end
$var reg 2 "& a_serverAdapter_s1 $end
$var reg 2 "' a_serverAdapter_s1_1 $end
$var reg 2 "( a_serverAdapter_writeWithResp $end
$scope module b_memory $end
$var reg 1 ! CLK $end
$var reg 1 ") EN $end
$var reg 1 "* WE $end
$var reg 8 "+ ADDR $end
$var reg 32 ", DI $end
$var reg 32 "- DO $end
$upscope $end
$var reg 3 ". b_serverAdapter_cnt $end
$var reg 3 "/ b_serverAdapter_cnt_1 $end
$var reg 3 "0 b_serverAdapter_cnt_2 $end
$var reg 3 "1 b_serverAdapter_cnt_3 $end
$var reg 1 "2 b_serverAdapter_outData_beforeDeq $end
$var reg 1 "3 b_serverAdapter_outData_beforeEnq $end
$var reg 1 "4 b_serverAdapter_outData_dequeueing $end
$var reg 32 "5 b_serverAdapter_outData_enqw $end
$scope module b_serverAdapter_outData_ff $end
$var reg 1 ! CLK $end
$var reg 1 "6 RST $end
$var reg 1 "7 FULL_N $end
$var reg 1 "8 EMPTY_N $end
$var reg 1 "9 ENQ $end
$var reg 32 ": D_IN $end
$var reg 1 "; DEQ $end
$var reg 1 "< CLR $end
$var reg 32 "= D_OUT $end
$var reg 32 "= arr_0 $end
$var reg 32 "> arr_1 $end
$var reg 32 "? arr_2 $end
$upscope $end
$var reg 2 "@ b_serverAdapter_s1 $end
$var reg 2 "A b_serverAdapter_s1_1 $end
$var reg 2 "B b_serverAdapter_writeWithResp $end
$var reg 8 "C dim $end
$var reg 1 "D done_a $end
$var reg 1 "E done_all $end
$var reg 1 "F done_b $end
$var reg 3 "G i $end
$var reg 32 "H output_res $end
$var reg 8 "I pos_a $end
$var reg 8 "J pos_b $end
$var reg 8 "K pos_out $end
$var reg 1 "L ready_start $end
$var reg 1 "M req_a_ready $end
$var reg 1 "N req_b_ready $end
$upscope $end
$upscope $end
$upscope $end
$enddefinitions $end
1!
0"
b0 #
b0 (
1)
b0 *
0+
b0 ,
0-
0.
0/
00
01
b10 2
b10 3
b10 4
05
06
07
08
09
b10 :
0;
0<
b0 =
b0 >
b0 ?
b0 @
b0 A
b0 B
b0 C
b0 D
b0 E
b0 F
0m
0n
b0 o
b10101010101010101010101010101010 p
b10101010101010101010101010101010 q
b0 r
bx s
bx t
bx u
1v
1w
0x
bx y
0z
1{
0|
0}
b10101010101010101010101010101010 ~
0"!
1""
bx "#
bx "$
bx "%
b0 "&
bx "'
bx "(
0")
0"*
b0 "+
b10101010101010101010101010101010 ",
b10101010101010101010101010101010 "-
b0 ".
bx "/
bx "0
bx "1
1"2
1"3
0"4
bx "5
0"6
1"7
0"8
0"9
b10101010101010101010101010101010 ":
0";
1"<
bx "=
bx ">
bx "?
b0 "@
bx "A
bx "B
b0 "C
0"D
0"E
0"F
b0 "G
b0 "H
b0 "I
b0 "J
b0 "K
0"L
0"M
0"N
b0 2
b0 3
b0 4
b0 :
0""
0"<
#5
0!
1"
1+
1z
1"6
#10
1-
15
1<
b1 >
b10000 A
b10000 E
b1 F
1m
b1 s
b11 "'
b0 "(
1")
b1 "/
b11 "A
b0 "B
1!
b1 (
0)
b10000 "C
1"L
#15
0!
#20
0-
1.
11
b11 2
b1 3
b1 4
05
16
19
b11 :
b1 =
b101 B
b1 C
b101 D
0m
bx s
b111 t
1x
b101 y
bx "'
bx "(
0")
bx "/
b111 "0
1"4
b1 "5
bx "A
bx "B
1!
b10 (
b101 q
b1 r
b11 "&
b1 "-
b1 ".
b11 "@
b1 "I
b1 "J
1"M
1"N
#25
0!
#30
1-
0.
01
b0 2
b0 3
b0 4
15
06
09
b0 :
1m
b1 o
b1 s
bx t
0x
bx y
b11 "'
b0 "(
1")
b1 "+
b1 "/
bx "0
0"4
bx "5
b11 "A
b0 "B
1!
b11 (
b0 r
b0 "&
b0 ".
b0 "@
b101 "H
b1 "K
0"M
0"N
#35
0!
#40
0-
1.
11
b11 2
b1 3
b1 4
05
16
19
b11 :
b10 =
b101 @
b110 B
b10 C
b110 D
0m
bx s
b111 t
1x
b110 y
bx "'
bx "(
0")
bx "/
b111 "0
1"4
b10 "5
bx "A
bx "B
1!
b100 (
b110 q
b1 r
b11 "&
b10 "-
b1 ".
b11 "@
b10 "I
b10 "J
1"M
1"N
#45
0!
#50
1-
0.
01
b0 2
b0 3
b0 4
15
06
09
b0 :
1m
b10 o
b1 s
bx t
0x
bx y
b11 "'
b0 "(
1")
b10 "+
b1 "/
bx "0
0"4
bx "5
b11 "A
b0 "B
1!
b101 (
b0 r
b0 "&
b0 ".
b0 "@
b10001 "H
b10 "K
0"M
0"N
#55
0!
#60
0-
1.
11
b11 2
b1 3
b1 4
05
16
19
b11 :
b101 =
b10001 @
b111 B
b101 C
b111 D
0m
bx s
b111 t
1x
b111 y
bx "'
bx "(
0")
bx "/
b111 "0
1"4
b101 "5
bx "A
bx "B
1!
b110 (
b111 q
b1 r
b11 "&
b101 "-
b1 ".
b11 "@
b11 "I
b11 "J
1"M
1"N
#65
0!
#70
1-
0.
01
b0 2
b0 3
b0 4
15
06
09
b0 :
1m
b11 o
b1 s
bx t
0x
bx y
b11 "'
b0 "(
1")
b11 "+
b1 "/
bx "0
0"4
bx "5
b11 "A
b0 "B
1!
b111 (
b0 r
b0 "&
b0 ".
b0 "@
b110100 "H
b11 "K
0"M
0"N
#75
0!
#80
0-
1.
11
b11 2
b1 3
b1 4
05
16
19
b11 :
b111 =
b110100 @
b1 B
b111 C
b1 D
0m
bx s
b111 t
1x
b1 y
bx "'
bx "(
0")
bx "/
b111 "0
1"4
b111 "5
bx "A
bx "B
1!
b1000 (
b1 q
b1 r
b11 "&
b111 "-
b1 ".
b11 "@
b100 "I
b100 "J
1"M
1"N
#85
0!
#90
1-
0.
01
b0 2
b0 3
b0 4
15
06
09
b0 :
1m
b100 o
b1 s
bx t
0x
bx y
b11 "'
b0 "(
1")
b100 "+
b1 "/
bx "0
0"4
bx "5
b11 "A
b0 "B
1!
b1001 (
b0 r
b0 "&
b0 ".
b0 "@
b111011 "H
b100 "K
0"M
0"N
#95
0!
#100
0-
1.
11
b11 2
b1 3
b1 4
05
16
19
b11 :
b1000 =
b111011 @
b10 B
b1000 C
b10 D
0m
bx s
b111 t
1x
b10 y
bx "'
bx "(
0")
bx "/
b111 "0
1"4
b1000 "5
bx "A
bx "B
1!
b1010 (
b10 q
b1 r
b11 "&
b1000 "-
b1 ".
b11 "@
b101 "I
b101 "J
1"M
1"N
#105
0!
#110
1-
0.
01
b0 2
b0 3
b0 4
15
06
09
b0 :
1m
b101 o
b1 s
bx t
0x
bx y
b11 "'
b0 "(
1")
b101 "+
b1 "/
bx "0
0"4
bx "5
b11 "A
b0 "B
1!
b1011 (
b0 r
b0 "&
b0 ".
b0 "@
b1001011 "H
b101 "K
0"M
0"N
#115
0!
#120
0-
1.
11
b11 2
b1 3
b1 4
05
16
19
b11 :
b101 =
b1001011 @
b100 B
b101 C
b100 D
0m
bx s
b111 t
1x
b100 y
bx "'
bx "(
0")
bx "/
b111 "0
1"4
b101 "5
bx "A
bx "B
1!
b1100 (
b100 q
b1 r
b11 "&
b101 "-
b1 ".
b11 "@
b110 "I
b110 "J
1"M
1"N
#125
0!
#130
1-
0.
01
b0 2
b0 3
b0 4
15
06
09
b0 :
1m
b110 o
b1 s
bx t
0x
bx y
b11 "'
b0 "(
1")
b110 "+
b1 "/
bx "0
0"4
bx "5
b11 "A
b0 "B
1!
b1101 (
b0 r
b0 "&
b0 ".
b0 "@
b1011111 "H
b110 "K
0"M
0"N
#135
0!
#140
0-
1.
11
b11 2
b1 3
b1 4
05
16
19
b11 :
b111 =
b1011111 @
b110 B
b111 C
b110 D
0m
bx s
b111 t
1x
b110 y
bx "'
bx "(
0")
bx "/
b111 "0
1"4
b111 "5
bx "A
bx "B
1!
b1110 (
b110 q
b1 r
b11 "&
b111 "-
b1 ".
b11 "@
b111 "I
b111 "J
1"M
1"N
#145
0!
#150
1-
0.
01
b0 2
b0 3
b0 4
15
06
09
b0 :
1m
b111 o
b1 s
bx t
0x
bx y
b11 "'
b0 "(
1")
b111 "+
b1 "/
bx "0
0"4
bx "5
b11 "A
b0 "B
1!
b1111 (
b0 r
b0 "&
b0 ".
b0 "@
b10001001 "H
b111 "K
0"M
0"N
#155
0!
#160
0-
1.
11
b11 2
b1 3
b1 4
05
16
19
b11 :
b1000 =
b10001001 @
b101 B
b1000 C
b101 D
0m
bx s
b111 t
1x
b101 y
bx "'
bx "(
0")
bx "/
b111 "0
1"4
b1000 "5
bx "A
bx "B
1!
b10000 (
b101 q
b1 r
b11 "&
b1000 "-
b1 ".
b11 "@
b1000 "I
b1000 "J
1"M
1"N
#165
0!
#170
1-
0.
01
b0 2
b0 3
b0 4
15
06
09
b0 :
1m
b1000 o
b1 s
bx t
0x
bx y
b11 "'
b0 "(
1")
b1000 "+
b1 "/
bx "0
0"4
bx "5
b11 "A
b0 "B
1!
b10001 (
b0 r
b0 "&
b0 ".
b0 "@
b10110001 "H
b1000 "K
0"M
0"N
#175
0!
#180
0-
1.
11
b11 2
b1 3
b1 4
05
16
19
b11 :
b1 =
b10110001 @
b1 C
0m
bx s
b111 t
1x
b101 y
bx "'
bx "(
0")
bx "/
b111 "0
1"4
b1 "5
bx "A
bx "B
1!
b10010 (
b1 r
b11 "&
b1 "-
b1 ".
b11 "@
b1001 "I
b1001 "J
1"M
1"N
#185
0!
#190
1-
0.
01
b0 2
b0 3
b0 4
15
06
09
b0 :
1m
b1001 o
b1 s
bx t
0x
bx y
b11 "'
b0 "(
1")
b1001 "+
b1 "/
bx "0
0"4
bx "5
b11 "A
b0 "B
1!
b10011 (
b0 r
b0 "&
b0 ".
b0 "@
b10110110 "H
b1001 "K
0"M
0"N
#195
0!
#200
0-
1.
11
b11 2
b1 3
b1 4
05
16
19
b11 :
b10 =
b10110110 @
b110 B
b10 C
b110 D
0m
bx s
b111 t
1x
b110 y
bx "'
bx "(
0")
bx "/
b111 "0
1"4
b10 "5
bx "A
bx "B
1!
b10100 (
b110 q
b1 r
b11 "&
b10 "-
b1 ".
b11 "@
b1010 "I
b1010 "J
1"M
1"N
#205
0!
#210
1-
0.
01
b0 2
b0 3
b0 4
15
06
09
b0 :
1m
b1010 o
b1 s
bx t
0x
bx y
b11 "'
b0 "(
1")
b1010 "+
b1 "/
bx "0
0"4
bx "5
b11 "A
b0 "B
1!
b10101 (
b0 r
b0 "&
b0 ".
b0 "@
b11000010 "H
b1010 "K
0"M
0"N
#215
0!
#220
0-
1.
11
b11 2
b1 3
b1 4
05
16
19
b11 :
b101 =
b11000010 @
b111 B
b101 C
b111 D
0m
bx s
b111 t
1x
b111 y
bx "'
bx "(
0")
bx "/
b111 "0
1"4
b101 "5
bx "A
bx "B
1!
b10110 (
b111 q
b1 r
b11 "&
b101 "-
b1 ".
b11 "@
b1011 "I
b1011 "J
1"M
1"N
#225
0!
#230
1-
0.
01
b0 2
b0 3
b0 4
15
06
09
b0 :
1m
b1011 o
b1 s
bx t
0x
bx y
b11 "'
b0 "(
1")
b1011 "+
b1 "/
bx "0
0"4
bx "5
b11 "A
b0 "B
1!
b10111 (
b0 r
b0 "&
b0 ".
b0 "@
b11100101 "H
b1011 "K
0"M
0"N
#235
0!
#240
0-
1.
11
b11 2
b1 3
b1 4
05
16
19
b11 :
b111 =
b11100101 @
b1001 B
b111 C
b1001 D
0m
bx s
b111 t
1x
b1001 y
bx "'
bx "(
0")
bx "/
b111 "0
1"4
b111 "5
bx "A
bx "B
1!
b11000 (
b1001 q
b1 r
b11 "&
b111 "-
b1 ".
b11 "@
b1100 "I
b1100 "J
1"M
1"N
#245
0!
#250
1-
0.
01
b0 2
b0 3
b0 4
15
06
09
b0 :
1m
b1100 o
b1 s
bx t
0x
bx y
b11 "'
b0 "(
1")
b1100 "+
b1 "/
bx "0
0"4
bx "5
b11 "A
b0 "B
1!
b11001 (
b0 r
b0 "&
b0 ".
b0 "@
b100100100 "H
b1100 "K
0"M
0"N
#255
0!
#260
0-
1.
11
b11 2
b1 3
b1 4
05
16
19
b11 :
b1000 =
b100100100 @
b10 B
b1000 C
b10 D
0m
bx s
b111 t
1x
b10 y
bx "'
bx "(
0")
bx "/
b111 "0
1"4
b1000 "5
bx "A
bx "B
1!
b11010 (
b10 q
b1 r
b11 "&
b1000 "-
b1 ".
b11 "@
b1101 "I
b1101 "J
1"M
1"N
#265
0!
#270
1-
0.
01
b0 2
b0 3
b0 4
15
06
09
b0 :
1m
b1101 o
b1 s
bx t
0x
bx y
b11 "'
b0 "(
1")
b1101 "+
b1 "/
bx "0
0"4
bx "5
b11 "A
b0 "B
1!
b11011 (
b0 r
b0 "&
b0 ".
b0 "@
b100110100 "H
b1101 "K
0"M
0"N
#275
0!
#280
0-
1.
11
b11 2
b1 3
b1 4
05
16
19
b11 :
b101 =
b100110100 @
b100 B
b101 C
b100 D
0m
bx s
b111 t
1x
b100 y
bx "'
bx "(
0")
bx "/
b111 "0
1"4
b101 "5
bx "A
bx "B
1!
b11100 (
b100 q
b1 r
b11 "&
b101 "-
b1 ".
b11 "@
b1110 "I
b1110 "J
1"M
1"N
#285
0!
#290
1-
0.
01
b0 2
b0 3
b0 4
15
06
09
b0 :
1m
b1110 o
b1 s
bx t
0x
bx y
b11 "'
b0 "(
1")
b1110 "+
b1 "/
bx "0
0"4
bx "5
b11 "A
b0 "B
1!
b11101 (
b0 r
b0 "&
b0 ".
b0 "@
b101001000 "H
b1110 "K
0"M
0"N
#295
0!
#300
0-
1.
11
b11 2
b1 3
b1 4
05
16
19
b11 :
b111 =
b101001000 @
b110 B
b111 C
b110 D
0m
bx s
b111 t
1x
b110 y
bx "'
bx "(
0")
bx "/
b111 "0
1"4
b111 "5
bx "A
bx "B
1!
b11110 (
b110 q
b1 r
b11 "&
b111 "-
b1 ".
b11 "@
b1111 "I
b1111 "J
1"M
1"N
#305
0!
#310
1-
0.
01
b0 2
b0 3
b0 4
15
06
09
b0 :
1m
b1111 o
b1 s
bx t
0x
bx y
b11 "'
b0 "(
1")
b1111 "+
b1 "/
bx "0
0"4
bx "5
b11 "A
b0 "B
1!
b11111 (
b0 r
b0 "&
b0 ".
b0 "@
b101110010 "H
b1111 "K
0"M
0"N
#315
0!
#320
0-
1.
11
b11 2
b1 3
b1 4
05
16
19
b11 :
b1000 =
b101110010 @
b101 B
b1000 C
b101 D
0m
bx s
b111 t
1x
b101 y
bx "'
bx "(
0")
bx "/
b111 "0
1"4
b1000 "5
bx "A
bx "B
1!
b100000 (
b101 q
b1 r
b11 "&
b1000 "-
b1 ".
b11 "@
b10000 "I
b10000 "J
1"M
1"N
#325
0!
#330
1-
0.
01
b0 2
b0 3
b0 4
15
06
09
b0 :
1;
b110011010 @
1m
b10000 o
b1 s
bx t
0x
bx y
b11 "'
b0 "(
1")
b10000 "+
b1 "/
bx "0
0"4
bx "5
b11 "A
b0 "B
1!
b100001 (
b0 r
b0 "&
b0 ".
b0 "@
1"E
b110011010 "H
b10000 "K
0"M
0"N
#335
0!
#340
b1 #
0-
11
b11 2
b1 3
b1 4
05
19
b11 :
0;
0<
b1 =
b1 C
0m
bx s
b101 y
1}
b101 ~
bx "'
bx "(
0")
bx "/
b1 "5
1"9
b1 ":
bx "A
bx "B
1!
b100010 (
1)
b1 *
b1 r
b11 "&
b1 "-
b1 ".
b11 "@
1"D
1"F
0"L
1"M
1"N
#345
0!
#350
1-
10
01
b0 2
15
18
09
b0 :
1<
b10 >
b1 ?
b100000 E
b10 F
1m
b1 s
bx y
0}
b11 "'
b0 "(
1")
b1 "/
bx "5
0"9
b11 "A
b0 "B
1!
b100011 (
0)
1|
b101 "#
b0 "&
1"8
b1 "=
b0 "@
0"D
0"E
0"F
b1 "G
b0 "H
b0 "K
1"L
0"M
0"N
#355
0!
#360
0-
1.
11
b11 2
b10 3
b10 4
05
16
19
b11 :
b0 @
0m
bx s
b111 t
1x
b101 y
1}
1"!
bx "'
bx "(
0")
bx "/
b111 "0
1"4
b1 "5
1"9
1";
bx "A
bx "B
1!
b100100 (
b10 r
b11 "&
b10 ".
b11 "@
b10001 "I
b10001 "J
1"M
1"N
#365
0!
#370
1-
0.
01
b0 2
b1 3
b1 4
15
06
09
b0 :
1m
b10001 o
b1 s
bx t
0x
bx y
0}
0"!
b11 "'
b0 "(
1")
b10001 "+
b1 "/
bx "0
0"4
bx "5
0"9
0";
b11 "A
b0 "B
1!
b100101 (
b1 r
b0 "&
b1 ".
b0 "@
b101 "H
b1 "K
0"M
0"N
#375
0!
#380
0-
1.
11
b11 2
b10 3
b10 4
05
16
19
b11 :
b10 =
b101 @
b110 B
b10 C
b110 D
0m
bx s
b111 t
1x
b110 y
1}
b110 ~
1"!
bx "'
bx "(
0")
bx "/
b111 "0
1"4
b10 "5
1"9
b10 ":
1";
bx "A
bx "B
1!
b100110 (
b110 q
b10 r
b11 "&
b10 "-
b10 ".
b11 "@
b10010 "I
b10010 "J
1"M
1"N
#385
0!
#390
1-
0.
01
b0 2
b1 3
b1 4
15
06
09
b0 :
1m
b10010 o
b1 s
bx t
0x
bx y
0}
0"!
b11 "'
b0 "(
1")
b10010 "+
b1 "/
bx "0
0"4
bx "5
0"9
0";
b11 "A
b0 "B
1!
b100111 (
b1 r
b110 "#
b0 "&
b1 ".
b10 "=
b0 "@
b1010 "H
b10 "K
0"M
0"N
#395
0!
#400
0-
1.
11
b11 2
b10 3
b10 4
05
16
19
b11 :
b101 =
b1010 @
b111 B
b101 C
b111 D
0m
bx s
b111 t
1x
b111 y
1}
b111 ~
1"!
bx "'
bx "(
0")
bx "/
b111 "0
1"4
b101 "5
1"9
b101 ":
1";
bx "A
bx "B
1!
b101000 (
b111 q
b10 r
b11 "&
b101 "-
b10 ".
b11 "@
b10011 "I
b10011 "J
1"M
1"N
#405
0!
#410
1-
0.
01
b0 2
b1 3
b1 4
15
06
09
b0 :
1m
b10011 o
b1 s
bx t
0x
bx y
0}
0"!
b11 "'
b0 "(
1")
b10011 "+
b1 "/
bx "0
0"4
bx "5
0"9
0";
b11 "A
b0 "B
1!
b101001 (
b1 r
b111 "#
b0 "&
b1 ".
b101 "=
b0 "@
b10110 "H
b11 "K
0"M
0"N
#415
0!
#420
0-
1.
11
b11 2
b10 3
b10 4
05
16
19
b11 :
b111 =
b10110 @
b1 B
b111 C
b1 D
0m
bx s
b111 t
1x
b1 y
1}
b1 ~
1"!
bx "'
bx "(
0")
bx "/
b111 "0
1"4
b111 "5
1"9
b111 ":
1";
bx "A
bx "B
1!
b101010 (
b1 q
b10 r
b11 "&
b111 "-
b10 ".
b11 "@
b10100 "I
b10100 "J
1"M
1"N
#425
0!
#430
1-
0.
01
b0 2
b1 3
b1 4
15
06
09
b0 :
1m
b10100 o
b1 s
bx t
0x
bx y
0}
0"!
b11 "'
b0 "(
1")
b10100 "+
b1 "/
bx "0
0"4
bx "5
0"9
0";
b11 "A
b0 "B
1!
b101011 (
b1 r
b1 "#
b0 "&
b1 ".
b111 "=
b0 "@
b111001 "H
b100 "K
0"M
0"N
#435
0!
#440
0-
1.
11
b11 2
b10 3
b10 4
05
16
19
b11 :
b1000 =
b111001 @
b10 B
b1000 C
b10 D
0m
bx s
b111 t
1x
b10 y
1}
b10 ~
1"!
bx "'
bx "(
0")
bx "/
b111 "0
1"4
b1000 "5
1"9
b1000 ":
1";
bx "A
bx "B
1!
b101100 (
b10 q
b10 r
b11 "&
b1000 "-
b10 ".
b11 "@
b10101 "I
b10101 "J
1"M
1"N
#445
0!
#450
1-
0.
01
b0 2
b1 3
b1 4
15
06
09
b0 :
1m
b10101 o
b1 s
bx t
0x
bx y
0}
0"!
b11 "'
b0 "(
1")
b10101 "+
b1 "/
bx "0
0"4
bx "5
0"9
0";
b11 "A
b0 "B
1!
b101101 (
b1 r
b10 "#
b0 "&
b1 ".
b1000 "=
b0 "@
b1000000 "H
b101 "K
0"M
0"N
#455
0!
#460
0-
1.
11
b11 2
b10 3
b10 4
05
16
19
b11 :
b101 =
b1000000 @
b100 B
b101 C
b100 D
0m
bx s
b111 t
1x
b100 y
1}
b100 ~
1"!
bx "'
bx "(
0")
bx "/
b111 "0
1"4
b101 "5
1"9
b101 ":
1";
bx "A
bx "B
1!
b101110 (
b100 q
b10 r
b11 "&
b101 "-
b10 ".
b11 "@
b10110 "I
b10110 "J
1"M
1"N
#465
0!
#470
1-
0.
01
b0 2
b1 3
b1 4
15
06
09
b0 :
1m
b10110 o
b1 s
bx t
0x
bx y
0}
0"!
b11 "'
b0 "(
1")
b10110 "+
b1 "/
bx "0
0"4
bx "5
0"9
0";
b11 "A
b0 "B
1!
b101111 (
b1 r
b100 "#
b0 "&
b1 ".
b101 "=
b0 "@
b1010000 "H
b110 "K
0"M
0"N
#475
0!
#480
0-
1.
11
b11 2
b10 3
b10 4
05
16
19
b11 :
b111 =
b1010000 @
b110 B
b111 C
b110 D
0m
bx s
b111 t
1x
b110 y
1}
b110 ~
1"!
bx "'
bx "(
0")
bx "/
b111 "0
1"4
b111 "5
1"9
b111 ":
1";
bx "A
bx "B
1!
b110000 (
b110 q
b10 r
b11 "&
b111 "-
b10 ".
b11 "@
b10111 "I
b10111 "J
1"M
1"N
#485
0!
#490
1-
0.
01
b0 2
b1 3
b1 4
15
06
09
b0 :
1m
b10111 o
b1 s
bx t
0x
bx y
0}
0"!
b11 "'
b0 "(
1")
b10111 "+
b1 "/
bx "0
0"4
bx "5
0"9
0";
b11 "A
b0 "B
1!
b110001 (
b1 r
b110 "#
b0 "&
b1 ".
b111 "=
b0 "@
b1100100 "H
b111 "K
0"M
0"N
#495
0!
#500
0-
1.
11
b11 2
b10 3
b10 4
05
16
19
b11 :
b1000 =
b1100100 @
b101 B
b1000 C
b101 D
0m
bx s
b111 t
1x
b101 y
1}
b101 ~
1"!
bx "'
bx "(
0")
bx "/
b111 "0
1"4
b1000 "5
1"9
b1000 ":
1";
bx "A
bx "B
1!
b110010 (
b101 q
b10 r
b11 "&
b1000 "-
b10 ".
b11 "@
b11000 "I
b11000 "J
1"M
1"N
#505
0!
#510
1-
0.
01
b0 2
b1 3
b1 4
15
06
09
b0 :
1m
b11000 o
b1 s
bx t
0x
bx y
0}
0"!
b11 "'
b0 "(
1")
b11000 "+
b1 "/
bx "0
0"4
bx "5
0"9
0";
b11 "A
b0 "B
1!
b110011 (
b1 r
b101 "#
b0 "&
b1 ".
b1000 "=
b0 "@
b10001110 "H
b1000 "K
0"M
0"N
#515
0!
#520
0-
1.
11
b11 2
b10 3
b10 4
05
16
19
b11 :
b1 =
b10001110 @
b1 C
0m
bx s
b111 t
1x
b101 y
1}
1"!
bx "'
bx "(
0")
bx "/
b111 "0
1"4
b1 "5
1"9
b1 ":
1";
bx "A
bx "B
1!
b110100 (
b10 r
b11 "&
b1 "-
b10 ".
b11 "@
b11001 "I
b11001 "J
1"M
1"N
#525
0!
#530
1-
0.
01
b0 2
b1 3
b1 4
15
06
09
b0 :
1m
b11001 o
b1 s
bx t
0x
bx y
0}
0"!
b11 "'
b0 "(
1")
b11001 "+
b1 "/
bx "0
0"4
bx "5
0"9
0";
b11 "A
b0 "B
1!
b110101 (
b1 r
b0 "&
b1 ".
b1 "=
b0 "@
b10110110 "H
b1001 "K
0"M
0"N
#535
0!
#540
0-
1.
11
b11 2
b10 3
b10 4
05
16
19
b11 :
b10 =
b10110110 @
b110 B
b10 C
b110 D
0m
bx s
b111 t
1x
b110 y
1}
b110 ~
1"!
bx "'
bx "(
0")
bx "/
b111 "0
1"4
b10 "5
1"9
b10 ":
1";
bx "A
bx "B
1!
b110110 (
b110 q
b10 r
b11 "&
b10 "-
b10 ".
b11 "@
b11010 "I
b11010 "J
1"M
1"N
#545
0!
#550
1-
0.
01
b0 2
b1 3
b1 4
15
06
09
b0 :
1m
b11010 o
b1 s
bx t
0x
bx y
0}
0"!
b11 "'
b0 "(
1")
b11010 "+
b1 "/
bx "0
0"4
bx "5
0"9
0";
b11 "A
b0 "B
1!
b110111 (
b1 r
b110 "#
b0 "&
b1 ".
b10 "=
b0 "@
b10111011 "H
b1010 "K
0"M
0"N
#555
0!
#560
0-
1.
11
b11 2
b10 3
b10 4
05
16
19
b11 :
b101 =
b10111011 @
b111 B
b101 C
b111 D
0m
bx s
b111 t
1x
b111 y
1}
b111 ~
1"!
bx "'
bx "(
0")
bx "/
b111 "0
1"4
b101 "5
1"9
b101 ":
1";
bx "A
bx "B
1!
b111000 (
b111 q
b10 r
b11 "&
b101 "-
b10 ".
b11 "@
b11011 "I
b11011 "J
1"M
1"N
#565
0!
#570
1-
0.
01
b0 2
b1 3
b1 4
15
06
09
b0 :
1m
b11011 o
b1 s
bx t
0x
bx y
0}
0"!
b11 "'
b0 "(
1")
b11011 "+
b1 "/
bx "0
0"4
bx "5
0"9
0";
b11 "A
b0 "B
1!
b111001 (
b1 r
b111 "#
b0 "&
b1 ".
b101 "=
b0 "@
b11000111 "H
b1011 "K
0"M
0"N
#575
0!
#580
0-
1.
11
b11 2
b10 3
b10 4
05
16
19
b11 :
b111 =
b11000111 @
b1 B
b111 C
b1 D
0m
bx s
b111 t
1x
b1 y
1}
b1 ~
1"!
bx "'
bx "(
0")
bx "/
b111 "0
1"4
b111 "5
1"9
b111 ":
1";
bx "A
bx "B
1!
b111010 (
b1 q
b10 r
b11 "&
b111 "-
b10 ".
b11 "@
b11100 "I
b11100 "J
1"M
1"N
#585
0!
#590
1-
0.
01
b0 2
b1 3
b1 4
15
06
09
b0 :
1m
b11100 o
b1 s
bx t
0x
bx y
0}
0"!
b11 "'
b0 "(
1")
b11100 "+
b1 "/
bx "0
0"4
bx "5
0"9
0";
b11 "A
b0 "B
1!
b111011 (
b1 r
b1 "#
b0 "&
b1 ".
b111 "=
b0 "@
b11101010 "H
b1100 "K
0"M
0"N
#595
0!
#600
0-
1.
11
b11 2
b10 3
b10 4
05
16
19
b11 :
b1000 =
b11101010 @
b10 B
b1000 C
b10 D
0m
bx s
b111 t
1x
b10 y
1}
b10 ~
1"!
bx "'
bx "(
0")
bx "/
b111 "0
1"4
b1000 "5
1"9
b1000 ":
1";
bx "A
bx "B
1!
b111100 (
b10 q
b10 r
b11 "&
b1000 "-
b10 ".
b11 "@
b11101 "I
b11101 "J
1"M
1"N
#605
0!
#610
1-
0.
01
b0 2
b1 3
b1 4
15
06
09
b0 :
1m
b11101 o
b1 s
bx t
0x
bx y
0}
0"!
b11 "'
b0 "(
1")
b11101 "+
b1 "/
bx "0
0"4
bx "5
0"9
0";
b11 "A
b0 "B
1!
b111101 (
b1 r
b10 "#
b0 "&
b1 ".
b1000 "=
b0 "@
b11110001 "H
b1101 "K
0"M
0"N
#615
0!
